EESchema Schematic File Version 4
EELAYER 30 0
EELAYER END
$Descr A4 11693 8268
encoding utf-8
Sheet 2 4
Title "Amplifier Module Schematic"
Date "2021-05-30"
Rev "1.0"
Comp "University of Cape Town"
Comment1 "Drawn by A. Moncho"
Comment2 ""
Comment3 ""
Comment4 ""
$EndDescr
$Comp
L Device:R_Small R1
U 1 1 60B41DC6
P 1100 2800
F 0 "R1" H 1159 2846 50  0000 L CNN
F 1 "1k" H 1159 2755 50  0000 L CNN
F 2 "Resistor_THT:R_Axial_DIN0411_L9.9mm_D3.6mm_P12.70mm_Horizontal" H 1100 2800 50  0001 C CNN
F 3 "~" H 1100 2800 50  0001 C CNN
	1    1100 2800
	1    0    0    -1  
$EndComp
$Comp
L power:GND #PWR0206
U 1 1 60B42650
P 1100 4050
F 0 "#PWR0206" H 1100 3800 50  0001 C CNN
F 1 "GND" H 1105 3877 50  0000 C CNN
F 2 "" H 1100 4050 50  0001 C CNN
F 3 "" H 1100 4050 50  0001 C CNN
	1    1100 4050
	1    0    0    -1  
$EndComp
$Comp
L Device:C_Small C1
U 1 1 60B4372A
P 1600 3100
F 0 "C1" V 1371 3100 50  0000 C CNN
F 1 "12u" V 1462 3100 50  0000 C CNN
F 2 "Capacitor_THT:CP_Radial_D10.0mm_P3.50mm" H 1600 3100 50  0001 C CNN
F 3 "~" H 1600 3100 50  0001 C CNN
	1    1600 3100
	0    1    1    0   
$EndComp
$Comp
L Device:R_Small R2
U 1 1 60B43F8A
P 2200 3550
F 0 "R2" H 2259 3596 50  0000 L CNN
F 1 "680" H 2259 3505 50  0000 L CNN
F 2 "Resistor_THT:R_Axial_DIN0411_L9.9mm_D3.6mm_P12.70mm_Horizontal" H 2200 3550 50  0001 C CNN
F 3 "~" H 2200 3550 50  0001 C CNN
	1    2200 3550
	1    0    0    -1  
$EndComp
$Comp
L Amplifier_Operational:LM358 U1
U 2 1 60B4480E
P 2950 3200
F 0 "U1" H 2950 3567 50  0000 C CNN
F 1 "LM358" H 2950 3476 50  0000 C CNN
F 2 "LM358N_NOPB:DIP794W45P254L959H508Q8" H 2950 3200 50  0001 C CNN
F 3 "http://www.ti.com/lit/ds/symlink/lm2904-n.pdf" H 2950 3200 50  0001 C CNN
	2    2950 3200
	1    0    0    -1  
$EndComp
$Comp
L Device:R_Small R4
U 1 1 60B4963B
P 3000 3650
F 0 "R4" V 2804 3650 50  0000 C CNN
F 1 "18k" V 2895 3650 50  0000 C CNN
F 2 "Resistor_THT:R_Axial_DIN0411_L9.9mm_D3.6mm_P12.70mm_Horizontal" H 3000 3650 50  0001 C CNN
F 3 "~" H 3000 3650 50  0001 C CNN
	1    3000 3650
	0    1    1    0   
$EndComp
$Comp
L Device:R_Small R5
U 1 1 60B49F6A
P 2650 3950
F 0 "R5" H 2709 3996 50  0000 L CNN
F 1 "1k" H 2709 3905 50  0000 L CNN
F 2 "Resistor_THT:R_Axial_DIN0411_L9.9mm_D3.6mm_P12.70mm_Horizontal" H 2650 3950 50  0001 C CNN
F 3 "~" H 2650 3950 50  0001 C CNN
	1    2650 3950
	1    0    0    -1  
$EndComp
$Comp
L Device:C_Small C2
U 1 1 60B4A459
P 3500 3500
F 0 "C2" H 3592 3546 50  0000 L CNN
F 1 "470p" H 3592 3455 50  0000 L CNN
F 2 "Capacitor_THT:CP_Radial_D10.0mm_P3.50mm" H 3500 3500 50  0001 C CNN
F 3 "~" H 3500 3500 50  0001 C CNN
	1    3500 3500
	1    0    0    -1  
$EndComp
Wire Wire Line
	1100 2250 1100 2700
Wire Wire Line
	1100 2900 1100 3100
Wire Wire Line
	1100 3750 1100 4050
Wire Wire Line
	1100 3100 1500 3100
Connection ~ 1100 3100
Wire Wire Line
	1100 3100 1100 3350
Wire Wire Line
	1700 3100 2200 3100
Wire Wire Line
	2200 3100 2200 3450
Connection ~ 2200 3100
Wire Wire Line
	2200 3100 2650 3100
$Comp
L power:GND #PWR0207
U 1 1 60B4B88F
P 2200 4050
F 0 "#PWR0207" H 2200 3800 50  0001 C CNN
F 1 "GND" H 2205 3877 50  0000 C CNN
F 2 "" H 2200 4050 50  0001 C CNN
F 3 "" H 2200 4050 50  0001 C CNN
	1    2200 4050
	1    0    0    -1  
$EndComp
Wire Wire Line
	2200 3650 2200 4050
Wire Wire Line
	2650 3850 2650 3800
Wire Wire Line
	2650 3650 2900 3650
Connection ~ 2650 3650
Wire Wire Line
	2650 3650 2650 3300
Wire Wire Line
	3100 3650 3350 3650
Wire Wire Line
	3350 3650 3350 3200
Wire Wire Line
	3350 3200 3250 3200
Wire Wire Line
	2650 3800 3500 3800
Wire Wire Line
	3500 3800 3500 3600
Connection ~ 2650 3800
Wire Wire Line
	2650 3800 2650 3650
Wire Wire Line
	3500 3400 3500 3200
Wire Wire Line
	3500 3200 3350 3200
Connection ~ 3350 3200
$Comp
L power:GND #PWR0208
U 1 1 60B4CC42
P 2650 4150
F 0 "#PWR0208" H 2650 3900 50  0001 C CNN
F 1 "GND" H 2655 3977 50  0000 C CNN
F 2 "" H 2650 4150 50  0001 C CNN
F 3 "" H 2650 4150 50  0001 C CNN
	1    2650 4150
	1    0    0    -1  
$EndComp
Wire Wire Line
	2650 4050 2650 4150
Wire Wire Line
	3850 3200 3500 3200
Connection ~ 3500 3200
Text GLabel 3850 3200 2    50   Input ~ 0
Output
Text GLabel 4650 3200 0    50   Input ~ 0
Output
$Comp
L Device:C_Small C4
U 1 1 60B4E907
P 4950 3200
F 0 "C4" V 4721 3200 50  0000 C CNN
F 1 "1u" V 4812 3200 50  0000 C CNN
F 2 "Capacitor_THT:CP_Radial_D10.0mm_P3.50mm" H 4950 3200 50  0001 C CNN
F 3 "~" H 4950 3200 50  0001 C CNN
	1    4950 3200
	0    1    1    0   
$EndComp
$Comp
L Device:R_Small R3
U 1 1 60B4F0BB
P 5200 2800
F 0 "R3" H 5259 2846 50  0000 L CNN
F 1 "1k" H 5259 2755 50  0000 L CNN
F 2 "Resistor_THT:R_Axial_DIN0411_L9.9mm_D3.6mm_P12.70mm_Horizontal" H 5200 2800 50  0001 C CNN
F 3 "~" H 5200 2800 50  0001 C CNN
	1    5200 2800
	1    0    0    -1  
$EndComp
$Comp
L Device:R_Small R6
U 1 1 60B4F691
P 5200 3450
F 0 "R6" H 5259 3496 50  0000 L CNN
F 1 "1k" H 5259 3405 50  0000 L CNN
F 2 "Resistor_THT:R_Axial_DIN0411_L9.9mm_D3.6mm_P12.70mm_Horizontal" H 5200 3450 50  0001 C CNN
F 3 "~" H 5200 3450 50  0001 C CNN
	1    5200 3450
	1    0    0    -1  
$EndComp
Wire Wire Line
	5150 2300 5200 2300
Wire Wire Line
	5200 2300 5200 2700
Wire Wire Line
	5200 2900 5200 3200
Wire Wire Line
	4650 3200 4850 3200
$Comp
L power:GND #PWR0201
U 1 1 60B50CC7
P 5200 3750
F 0 "#PWR0201" H 5200 3500 50  0001 C CNN
F 1 "GND" H 5205 3577 50  0000 C CNN
F 2 "" H 5200 3750 50  0001 C CNN
F 3 "" H 5200 3750 50  0001 C CNN
	1    5200 3750
	1    0    0    -1  
$EndComp
Wire Wire Line
	5200 3550 5200 3750
$Comp
L Transistor_BJT:2N3904 Q3
U 1 1 60B518C0
P 5500 3200
F 0 "Q3" H 5690 3246 50  0000 L CNN
F 1 "2N3904" H 5690 3155 50  0000 L CNN
F 2 "Package_TO_SOT_THT:TO-92_Inline" H 5700 3125 50  0001 L CIN
F 3 "https://www.onsemi.com/pub/Collateral/2N3903-D.PDF" H 5500 3200 50  0001 L CNN
	1    5500 3200
	1    0    0    -1  
$EndComp
Wire Wire Line
	5050 3200 5200 3200
$Comp
L Device:R_Small R7
U 1 1 60B52866
P 5600 2800
F 0 "R7" H 5659 2846 50  0000 L CNN
F 1 "1k" H 5659 2755 50  0000 L CNN
F 2 "Resistor_THT:R_Axial_DIN0411_L9.9mm_D3.6mm_P12.70mm_Horizontal" H 5600 2800 50  0001 C CNN
F 3 "~" H 5600 2800 50  0001 C CNN
	1    5600 2800
	1    0    0    -1  
$EndComp
$Comp
L Device:R_Small R8
U 1 1 60B52F62
P 5600 3650
F 0 "R8" H 5659 3696 50  0000 L CNN
F 1 "100" H 5659 3605 50  0000 L CNN
F 2 "Resistor_THT:R_Axial_DIN0411_L9.9mm_D3.6mm_P12.70mm_Horizontal" H 5600 3650 50  0001 C CNN
F 3 "~" H 5600 3650 50  0001 C CNN
	1    5600 3650
	1    0    0    -1  
$EndComp
$Comp
L power:GND #PWR0202
U 1 1 60B53422
P 5600 3900
F 0 "#PWR0202" H 5600 3650 50  0001 C CNN
F 1 "GND" H 5605 3727 50  0000 C CNN
F 2 "" H 5600 3900 50  0001 C CNN
F 3 "" H 5600 3900 50  0001 C CNN
	1    5600 3900
	1    0    0    -1  
$EndComp
Wire Wire Line
	5200 2300 5600 2300
Wire Wire Line
	5600 2300 5600 2700
Connection ~ 5200 2300
Wire Wire Line
	5600 2900 5600 3000
Wire Wire Line
	5600 3400 5600 3500
Wire Wire Line
	5600 3750 5600 3900
$Comp
L Device:C_Small C5
U 1 1 60B54B17
P 6150 3000
F 0 "C5" V 5921 3000 50  0000 C CNN
F 1 "1u" V 6012 3000 50  0000 C CNN
F 2 "Capacitor_THT:CP_Radial_D10.0mm_P3.50mm" H 6150 3000 50  0001 C CNN
F 3 "~" H 6150 3000 50  0001 C CNN
	1    6150 3000
	0    1    1    0   
$EndComp
$Comp
L Device:C_Small C3
U 1 1 60B54FC4
P 6100 3650
F 0 "C3" H 6192 3696 50  0000 L CNN
F 1 "10u" H 6192 3605 50  0000 L CNN
F 2 "Capacitor_THT:CP_Radial_D10.0mm_P3.50mm" H 6100 3650 50  0001 C CNN
F 3 "~" H 6100 3650 50  0001 C CNN
	1    6100 3650
	1    0    0    -1  
$EndComp
$Comp
L power:GND #PWR0203
U 1 1 60B553DD
P 6100 3900
F 0 "#PWR0203" H 6100 3650 50  0001 C CNN
F 1 "GND" H 6105 3727 50  0000 C CNN
F 2 "" H 6100 3900 50  0001 C CNN
F 3 "" H 6100 3900 50  0001 C CNN
	1    6100 3900
	1    0    0    -1  
$EndComp
Wire Wire Line
	6100 3900 6100 3750
Wire Wire Line
	6100 3550 6100 3500
Wire Wire Line
	6100 3500 5600 3500
Connection ~ 5600 3500
Wire Wire Line
	5600 3500 5600 3550
Wire Wire Line
	6050 3000 5600 3000
Connection ~ 5600 3000
Text GLabel 6550 3000 2    50   Input ~ 0
Waveform
Wire Wire Line
	6550 3000 6250 3000
$Comp
L Device:Microphone MK1
U 1 1 60B5A35D
P 1100 3550
F 0 "MK1" H 1230 3596 50  0000 L CNN
F 1 "Microphone" H 1230 3505 50  0000 L CNN
F 2 "Sensor_Audio:CUI_CMC-4013-SMT" V 1100 3650 50  0001 C CNN
F 3 "~" V 1100 3650 50  0001 C CNN
	1    1100 3550
	1    0    0    -1  
$EndComp
$Comp
L Analog_ADC:MCP3004 ADC1
U 1 1 60B64C29
P 8350 3300
F 0 "ADC1" H 8350 3881 50  0000 C CNN
F 1 "MCP3004" H 8350 3790 50  0000 C CNN
F 2 "MCP3004-I_ST:SOP65P640X120-14N" H 9250 3000 50  0001 C CNN
F 3 "http://ww1.microchip.com/downloads/en/DeviceDoc/21295C.pdf" H 9250 3000 50  0001 C CNN
	1    8350 3300
	1    0    0    -1  
$EndComp
Wire Wire Line
	8350 2900 8650 2900
Wire Wire Line
	8250 2900 7950 2900
$Comp
L power:GND #PWR0205
U 1 1 60B67E9E
P 8350 3900
F 0 "#PWR0205" H 8350 3650 50  0001 C CNN
F 1 "GND" H 8355 3727 50  0000 C CNN
F 2 "" H 8350 3900 50  0001 C CNN
F 3 "" H 8350 3900 50  0001 C CNN
	1    8350 3900
	1    0    0    -1  
$EndComp
$Comp
L power:GND #PWR0204
U 1 1 60B68451
P 8250 3900
F 0 "#PWR0204" H 8250 3650 50  0001 C CNN
F 1 "GND" H 8255 3727 50  0000 C CNN
F 2 "" H 8250 3900 50  0001 C CNN
F 3 "" H 8250 3900 50  0001 C CNN
	1    8250 3900
	1    0    0    -1  
$EndComp
Wire Wire Line
	8950 3200 9100 3200
Wire Wire Line
	8950 3300 9100 3300
Wire Wire Line
	8950 3400 9100 3400
Wire Wire Line
	8950 3500 9100 3500
Wire Wire Line
	8350 3800 8350 3900
Wire Wire Line
	8250 3800 8250 3900
Text GLabel 7550 3200 0    50   Input ~ 0
Waveform
Wire Wire Line
	7750 3200 7550 3200
Connection ~ 5200 3200
Wire Wire Line
	5200 3200 5200 3350
Wire Wire Line
	5200 3200 5300 3200
Text GLabel 9100 3200 2    50   Input ~ 0
GPIO11_SPI_SCLK
Text GLabel 9100 3300 2    50   Input ~ 0
GPIO9_SPI_MISO
Text GLabel 9100 3400 2    50   Input ~ 0
GPIO10_SPI_MOSI
Text GLabel 9100 3500 2    50   Input ~ 0
GPIO8_SPI_CE0_N
Text GLabel 8650 2900 2    50   Input ~ 0
5V_Regulated
Text GLabel 7950 2900 0    50   Input ~ 0
5V_Regulated
Text GLabel 5150 2300 0    50   Input ~ 0
5V_Regulated
Text GLabel 1100 2250 0    50   Input ~ 0
5V_Regulated
$Comp
L Amplifier_Operational:LM358 U1
U 3 1 60C1BA53
P 2950 3200
F 0 "U1" H 2950 3567 50  0000 C CNN
F 1 "LM358" H 2950 3476 50  0000 C CNN
F 2 "LM358N_NOPB:DIP794W45P254L959H508Q8" H 2950 3200 50  0001 C CNN
F 3 "http://www.ti.com/lit/ds/symlink/lm2904-n.pdf" H 2950 3200 50  0001 C CNN
	3    2950 3200
	1    0    0    -1  
$EndComp
$Comp
L power:GND #PWR0104
U 1 1 60C1E7F8
P 2850 3500
F 0 "#PWR0104" H 2850 3250 50  0001 C CNN
F 1 "GND" H 2855 3327 50  0000 C CNN
F 2 "" H 2850 3500 50  0001 C CNN
F 3 "" H 2850 3500 50  0001 C CNN
	1    2850 3500
	1    0    0    -1  
$EndComp
Text GLabel 2850 2200 0    50   Input ~ 0
5V_Regulated
Wire Wire Line
	2850 2200 2850 2900
$EndSCHEMATC
