EESchema Schematic File Version 4
EELAYER 30 0
EELAYER END
$Descr A4 11693 8268
encoding utf-8
Sheet 3 4
Title "Voltage Regulator Schematic"
Date "2021-05-30"
Rev "1.0"
Comp "University of Cape Town"
Comment1 "Drawn up by J.Barnard"
Comment2 ""
Comment3 ""
Comment4 ""
$EndDescr
$Comp
L Amplifier_Operational:LM358 U1
U 1 1 60B3D2B2
P 4600 4250
F 0 "U1" H 4600 4617 50  0000 C CNN
F 1 "LM358" H 4600 4526 50  0000 C CNN
F 2 "LM358N_NOPB:DIP794W45P254L959H508Q8" H 4600 4250 50  0001 C CNN
F 3 "http://www.ti.com/lit/ds/symlink/lm2904-n.pdf" H 4600 4250 50  0001 C CNN
	1    4600 4250
	1    0    0    -1  
$EndComp
$Comp
L Device:D_Zener D9
U 1 1 60B41690
P 3900 4350
F 0 "D9" V 3854 4430 50  0000 L CNN
F 1 "2V" V 3945 4430 50  0000 L CNN
F 2 "Diode_THT:D_5W_P10.16mm_Horizontal" H 3900 4350 50  0001 C CNN
F 3 "~" H 3900 4350 50  0001 C CNN
	1    3900 4350
	0    1    1    0   
$EndComp
$Comp
L Device:R R20
U 1 1 60B45266
P 3900 3950
F 0 "R20" H 3970 3996 50  0000 L CNN
F 1 "1k" H 3970 3905 50  0000 L CNN
F 2 "Resistor_THT:R_Axial_DIN0411_L9.9mm_D3.6mm_P12.70mm_Horizontal" V 3830 3950 50  0001 C CNN
F 3 "~" H 3900 3950 50  0001 C CNN
	1    3900 3950
	1    0    0    -1  
$EndComp
$Comp
L Device:R R25
U 1 1 60B45E52
P 7150 3750
F 0 "R25" H 7220 3796 50  0000 L CNN
F 1 "15k" H 7220 3705 50  0000 L CNN
F 2 "Resistor_THT:R_Axial_DIN0411_L9.9mm_D3.6mm_P12.70mm_Horizontal" V 7080 3750 50  0001 C CNN
F 3 "~" H 7150 3750 50  0001 C CNN
	1    7150 3750
	1    0    0    -1  
$EndComp
$Comp
L Device:R R26
U 1 1 60B46B0C
P 7150 4200
F 0 "R26" H 7220 4246 50  0000 L CNN
F 1 "10k" H 7220 4155 50  0000 L CNN
F 2 "Resistor_THT:R_Axial_DIN0411_L9.9mm_D3.6mm_P12.70mm_Horizontal" V 7080 4200 50  0001 C CNN
F 3 "~" H 7150 4200 50  0001 C CNN
	1    7150 4200
	1    0    0    -1  
$EndComp
$Comp
L Device:R R24
U 1 1 60B470FB
P 6400 3450
F 0 "R24" V 6607 3450 50  0000 C CNN
F 1 "8.66" V 6516 3450 50  0000 C CNN
F 2 "Resistor_THT:R_Axial_DIN0411_L9.9mm_D3.6mm_P12.70mm_Horizontal" V 6330 3450 50  0001 C CNN
F 3 "~" H 6400 3450 50  0001 C CNN
	1    6400 3450
	0    -1   -1   0   
$EndComp
$Comp
L Device:R R23
U 1 1 60B476B1
P 5900 3600
F 0 "R23" H 5970 3646 50  0000 L CNN
F 1 "3k3" H 5970 3555 50  0000 L CNN
F 2 "Resistor_THT:R_Axial_DIN0411_L9.9mm_D3.6mm_P12.70mm_Horizontal" V 5830 3600 50  0001 C CNN
F 3 "~" H 5900 3600 50  0001 C CNN
	1    5900 3600
	1    0    0    -1  
$EndComp
$Comp
L Device:R R22
U 1 1 60B47AF2
P 5900 4000
F 0 "R22" H 5970 4046 50  0000 L CNN
F 1 "6k8" H 5970 3955 50  0000 L CNN
F 2 "Resistor_THT:R_Axial_DIN0411_L9.9mm_D3.6mm_P12.70mm_Horizontal" V 5830 4000 50  0001 C CNN
F 3 "~" H 5900 4000 50  0001 C CNN
	1    5900 4000
	1    0    0    -1  
$EndComp
$Comp
L Device:R R21
U 1 1 60B47F90
P 5200 4250
F 0 "R21" V 5407 4250 50  0000 C CNN
F 1 "39" V 5316 4250 50  0000 C CNN
F 2 "Resistor_THT:R_Axial_DIN0411_L9.9mm_D3.6mm_P12.70mm_Horizontal" V 5130 4250 50  0001 C CNN
F 3 "~" H 5200 4250 50  0001 C CNN
	1    5200 4250
	0    -1   -1   0   
$EndComp
$Comp
L Device:Q_NPN_Darlington_BCE Q1
U 1 1 60B4A2BE
P 5450 3550
F 0 "Q1" V 5778 3550 50  0000 C CNN
F 1 "NPN_Darlington_Pair" V 5687 3550 50  0000 C CNN
F 2 "TO126:TO126" H 5650 3650 50  0001 C CNN
F 3 "~" H 5450 3550 50  0001 C CNN
	1    5450 3550
	0    -1   -1   0   
$EndComp
$Comp
L Transistor_BJT:2N3904 Q2
U 1 1 60B4D920
P 6400 4150
F 0 "Q2" V 6635 4150 50  0000 C CNN
F 1 "2N3904" V 6726 4150 50  0000 C CNN
F 2 "Package_TO_SOT_THT:TO-92_Inline" H 6600 4075 50  0001 L CIN
F 3 "https://www.onsemi.com/pub/Collateral/2N3903-D.PDF" H 6400 4150 50  0001 L CNN
	1    6400 4150
	0    -1   1    0   
$EndComp
$Comp
L Device:Battery_Cell Coin_Cell401
U 1 1 60B4F101
P 3500 3450
F 0 "Coin_Cell401" V 3245 3500 50  0000 C CNN
F 1 "3V" V 3336 3500 50  0000 C CNN
F 2 "Battery:BatteryHolder_Keystone_500" V 3500 3510 50  0001 C CNN
F 3 "~" V 3500 3510 50  0001 C CNN
	1    3500 3450
	0    1    1    0   
$EndComp
Wire Wire Line
	3700 3450 3900 3450
Wire Wire Line
	5650 3450 5900 3450
Wire Wire Line
	5900 3450 6250 3450
Connection ~ 5900 3450
Wire Wire Line
	7150 3600 7150 3450
Wire Wire Line
	7150 3450 6750 3450
Wire Wire Line
	7150 3900 7150 3950
Wire Wire Line
	7150 4700 7150 4350
Wire Wire Line
	6600 4250 6750 4250
Wire Wire Line
	6750 4250 6750 3450
Connection ~ 6750 3450
Wire Wire Line
	6750 3450 6550 3450
Wire Wire Line
	5900 3850 5900 3800
Wire Wire Line
	6400 3950 6400 3800
Wire Wire Line
	6400 3800 5900 3800
Connection ~ 5900 3800
Wire Wire Line
	5900 3800 5900 3750
Wire Wire Line
	6200 4250 5450 4250
Wire Wire Line
	3900 3800 3900 3450
Connection ~ 3900 3450
Wire Wire Line
	3900 3450 5250 3450
Wire Wire Line
	3900 4200 3900 4150
Wire Wire Line
	4300 4150 3900 4150
Connection ~ 3900 4150
Wire Wire Line
	3900 4150 3900 4100
Wire Wire Line
	4300 4350 4250 4350
Wire Wire Line
	4250 4350 4250 4600
Wire Wire Line
	4250 4600 6950 4600
Wire Wire Line
	6950 4600 6950 3950
Wire Wire Line
	6950 3950 7150 3950
Connection ~ 7150 3950
Wire Wire Line
	7150 3950 7150 4050
Wire Wire Line
	5450 3750 5450 4250
Wire Wire Line
	4900 4250 5050 4250
Wire Wire Line
	5350 4250 5450 4250
Connection ~ 5450 4250
Wire Wire Line
	5900 4900 5900 4700
Wire Wire Line
	5900 4150 5900 4700
Connection ~ 5900 4700
Wire Wire Line
	5900 4700 7150 4700
Wire Wire Line
	5900 4700 3900 4700
Wire Wire Line
	3900 4700 3900 4500
Wire Wire Line
	3250 3450 3400 3450
Connection ~ 7150 3450
Wire Wire Line
	7500 3450 7150 3450
$Comp
L power:GND #PWR0106
U 1 1 60BB7F7D
P 5900 4900
F 0 "#PWR0106" H 5900 4650 50  0001 C CNN
F 1 "GND" H 5905 4727 50  0000 C CNN
F 2 "" H 5900 4900 50  0001 C CNN
F 3 "" H 5900 4900 50  0001 C CNN
	1    5900 4900
	1    0    0    -1  
$EndComp
Text GLabel 3250 3450 0    50   Input ~ 0
Pi_5V
Text GLabel 7500 3450 2    50   Input ~ 0
5V_Regulated
$EndSCHEMATC
